%YAML 1.1
%TAG !u! tag:unity3d.com,2011:
--- !u!1045 &1
EditorBuildSettings:
  m_ObjectHideFlags: 0
  serializedVersion: 2
  m_Scenes:
  - enabled: 1
    path: Assets/Scenes/Menu.unity
    guid: b5a7a4cd666fae444ab88187b825bc19
  - enabled: 1
    path: Assets/Scenes/BoxSpawn.unity
    guid: 1b1befeb899e58d4294088e2a373cac3
  - enabled: 0
    path: Assets/Scenes/Flo.unity
    guid: fff2ed0cacba1e74abe1b9d680428c5d
  - enabled: 0
    path: Assets/Scenes/Game_Vuforia.unity
    guid: 4c9ba50584b0a5f4a820a148cd2fd90e
  m_configObjects: {}
